{
	"debug": "on",
  	"providers": {
  		"uwv": {
    		"providerId": "uwv",
			"name": "UWV",
    		"loginUrl": "https://mijn.uwv.nl/verzekeringsbericht/Default.aspx?ac=BekijkSVSpecificatie.ascx"
  		}
	}  
}