{
  "debug": "on",
  "attributes": [
      {
        "name" : "achternaam",
        "type" : "unique"
      },
      {
        "name" : "voorletters",
        "type" : "unique"
      },
      {
        "name" : "geboortedatum",
        "type" : "unique"
      },
      {
        "name" : "leeftijd",
        "type" : "custom"
      },
      {
        "name" : "jaar_arbeidsverleden",
        "type" : "unique"
      },
      {
        "name" : "ind_loondienst",
        "type" : "custom"
      },
      {
        "name" : "verzekeringsbericht",
        "type" : "file"
      }
  ],
  "unique":[
      {
        "attribute" : "achternaam",
        "content_start" : "De heer",
        "content_end"   : "Pagina",
        "content_flag" : "sg",
        "data_start": "De heer",
        "data_end" : "",
        "data_flag" : "sg",
        "regex" : "[^\\.]([^.]*)$",
        "index" : 0 ,
        "visible" : "true"
      },
      {
        "attribute" : "voorletters",
        "content_start" : "De heer",
        "content_end"   : "Pagina",
        "content_flag" : "sg",
        "data_start": "De heer",
        "data_end" : "\\.",
        "data_flag" : "sg",
        "regex" : "",
        "index" : 0 ,
        "visible" : "true"
      },
      {
        "attribute" : "geboortedatum",
        "content_start" : "Geboortedatum",
        "content_end"   : "Arbeidsverleden",
        "content_flag" : "sg",
        "data_start": "Geboortedatum:",
        "data_end" : "",
        "data_flag" : "sg",
        "regex" : "",
        "index" : 0 ,
        "visible" : "true"
      },
      {
        "attribute" : "jaar_arbeidsverleden",
        "content_start" : "Uw totale arbeidsverleden",
        "content_end"   : "Overzicht jaren",
        "content_flag" : "sg",
        "data_start": "Uw totale arbeidsverleden",
        "data_end" : "jaar",
        "data_flag" : "sg",
        "regex" : "",
        "index" : 0 ,
        "visible" : "true"
      }
    ],
    "custom":[{
        "attribute": "leeftijd",
        "functionName" : "getAge",
        "param"    : {"bday":"geboortedatum"} ,
        "visible"  : "true"
      },
      {
        "attribute": "ind_loondienst",
        "functionName" : "getCurrentEmploymentStatus",
        "param"    : {"wageData":"loongegevens"} ,
        "visible"  : "true"
      }
    ],
    "tables":[
        {
            "attribute" : "loongegevens",
            "content_start" : "Loongegevens",
            "content_end"   : "Disclaimer",
            "content_flag" : "sg",
            "table_header": "Periode Aantal uur Sv-loon",
            "table_end" : "",
            "table_flag" : "sg",
            "attributes" : [
            {
                "attribute" : "periode",
                "index" : 0 
            },
            {
                "attribute" : "aantal",
                "index" : 1 
            },
            {
                "attribute" : "Sv-loon",
                "index" : 2 
            }
            ],
            "visible" : "true"
        }
    ],
  "content_lists" : []
}